<?xml version="1.0" standalone="no"?>
<!DOCTYPE svg PUBLIC "-//W3C//DTD SVG 20010904//EN"
 "http://www.w3.org/TR/2001/REC-SVG-20010904/DTD/svg10.dtd">
<svg version="1.0" xmlns="http://www.w3.org/2000/svg"
 width="442.000000pt" height="489.000000pt" viewBox="0 0 442.000000 489.000000"
 preserveAspectRatio="xMidYMid meet">
<metadata>
Created by potrace 1.15, written by Peter Selinger 2001-2017
</metadata>
<g transform="translate(0.000000,489.000000) scale(0.100000,-0.100000)"
fill="#000000" stroke="none">
<path d="M32 3843 c4 -1157 -3 -1033 74 -1383 99 -448 285 -864 548 -1220 224
-305 565 -625 888 -833 140 -90 167 -106 228 -142 36 -21 90 -51 120 -68 30
-16 69 -38 85 -47 93 -54 278 -141 284 -134 3 5 35 24 71 43 890 457 1502
1042 1815 1732 114 253 193 524 237 819 7 51 12 433 15 1173 l3 1097 -2185 0
-2186 0 3 -1037z m4348 -25 c0 -1124 -1 -1155 -54 -1413 -191 -936 -822 -1688
-1911 -2279 -77 -42 -148 -76 -159 -76 -31 0 -329 145 -501 245 -456 263 -859
626 -1133 1018 -125 178 -284 476 -346 646 -102 282 -147 444 -196 711 -19
105 -21 163 -25 645 -3 292 -7 758 -10 1038 l-4 507 2169 0 2170 0 0 -1042z"/>
<path d="M2096 4388 c-34 -50 -36 -58 -36 -131 0 -42 -2 -77 -4 -77 -2 0 -25
12 -52 27 -43 24 -60 28 -134 28 -47 0 -106 -4 -132 -8 -43 -7 -47 -10 -46
-37 1 -16 5 -27 10 -24 4 3 8 1 8 -3 0 -5 20 -19 44 -33 25 -13 43 -28 40 -32
-3 -4 16 -8 43 -8 48 0 83 -13 66 -23 -4 -3 -37 -10 -72 -17 -52 -9 -66 -9
-72 2 -7 10 -9 10 -9 0 0 -7 -6 -12 -14 -10 -8 2 -16 -1 -18 -7 -5 -16 42 -17
168 -1 65 8 131 12 147 9 l27 -5 0 -177 -1 -176 -44 -33 c-51 -39 -117 -122
-141 -178 -24 -56 -22 -148 4 -207 31 -70 83 -138 136 -175 l46 -33 -1 -107 0
-107 -57 -37 -57 -37 -28 34 c-67 82 -217 112 -325 65 -66 -29 -78 -43 -98
-120 -51 -201 116 -331 305 -236 28 14 66 40 85 56 l35 31 40 -29 c22 -16 54
-35 72 -42 27 -12 30 -17 27 -47 -4 -31 -2 -34 16 -28 12 3 36 8 53 12 l33 6
3 166 3 166 2 -172 c1 -97 6 -173 11 -173 5 0 15 -2 23 -5 10 -4 13 4 10 33
-3 35 -1 40 22 46 58 14 166 166 166 232 0 20 4 21 100 16 117 -5 172 7 224
50 47 39 68 80 68 135 0 58 -7 63 -22 16 -33 -103 -89 -144 -196 -144 -36 0
-89 7 -119 16 -50 14 -55 19 -65 53 -18 66 -69 141 -125 185 l-55 42 0 238 0
239 44 50 c87 100 124 217 96 303 -14 44 -71 110 -112 131 l-28 15 0 118 0
119 -36 44 c-20 23 -37 44 -39 46 -1 1 -19 -21 -39 -50z m7 -665 l-28 -23 -3
315 -2 315 27 42 28 42 3 -335 3 -334 -28 -22z m97 367 c0 -238 -1 -257 -20
-285 l-20 -30 -2 70 -2 70 -6 -80 c-4 -45 -7 66 -8 250 l-1 330 29 -35 29 -35
1 -255z m-70 -727 l-1 -178 -29 33 c-29 32 -30 35 -30 140 0 98 2 110 25 145
14 20 28 37 30 37 3 0 5 -80 5 -177z m-348 -592 c16 -9 39 -32 53 -51 l26 -35
-33 -27 c-76 -63 -151 -83 -207 -53 -33 16 -56 64 -47 98 21 85 127 120 208
68z m348 -140 c0 -127 -2 -150 -16 -155 -43 -16 -44 -12 -44 133 0 133 1 141
22 155 12 9 26 16 30 16 5 0 8 -67 8 -149z"/>
<path d="M1872 2436 c4 -18 0 -26 -14 -29 -26 -7 -22 -26 8 -33 18 -5 22 -10
15 -17 -6 -6 -11 -17 -11 -24 0 -11 5 -11 20 -3 35 19 141 22 198 7 44 -12 60
-12 104 -1 67 18 113 18 172 0 45 -14 47 -14 41 5 -5 13 1 26 17 38 l23 19
-28 7 c-20 5 -25 11 -18 18 6 6 11 17 11 23 0 10 -9 9 -36 -2 -43 -18 -150
-20 -199 -4 -25 8 -45 8 -76 0 -59 -16 -150 -14 -194 4 l-37 16 4 -24z"/>
<path d="M2453 2367 c-15 -16 -19 -31 -16 -54 l5 -32 -40 20 c-58 29 -137 35
-205 15 -52 -15 -62 -15 -109 -1 -78 23 -140 18 -230 -20 -12 -5 -18 0 -21 17
-3 16 -5 12 -6 -13 l-1 -36 51 25 c39 20 67 26 115 26 35 0 66 -3 69 -5 3 -3
0 -30 -6 -60 l-11 -54 -60 3 c-32 2 -72 -1 -88 -8 -50 -21 -71 -92 -45 -152 5
-13 3 -18 -9 -18 -22 0 -49 -57 -49 -104 0 -30 6 -45 25 -61 25 -21 25 -22 7
-44 -34 -42 -19 -117 27 -142 23 -12 23 -14 7 -31 -46 -51 6 -132 94 -142 26
-4 60 -10 76 -15 15 -5 25 -6 22 -1 -3 4 2 11 11 14 32 12 38 5 13 -18 -20
-17 -25 -30 -22 -48 5 -25 5 -25 50 19 25 24 54 48 64 54 16 8 19 6 19 -15 0
-13 3 -33 6 -43 4 -13 3 -14 -3 -5 -8 10 -22 2 -61 -33 l-52 -47 16 -30 c14
-27 14 -31 -2 -49 -14 -15 -16 -26 -8 -46 13 -36 37 -49 70 -38 36 13 46 44
27 82 -13 27 -13 34 0 60 11 21 13 34 5 47 -9 16 -8 18 6 13 9 -4 14 -3 11 2
-3 5 -1 12 5 16 5 3 10 14 10 23 0 16 21 17 242 17 170 0 251 4 271 12 24 11
56 5 270 -52 133 -36 249 -68 257 -70 8 -3 -10 18 -40 46 l-55 50 68 -5 c37
-3 96 -9 131 -12 l64 -5 46 60 c25 34 46 65 46 70 0 4 10 21 22 36 25 32 28
37 114 203 34 65 67 144 74 177 7 33 17 68 22 78 11 21 27 22 -261 -4 -128
-11 -247 -19 -264 -17 l-31 3 43 30 c24 16 38 31 32 33 -9 3 -404 -51 -459
-64 -13 -2 -20 -9 -17 -14 19 -30 -70 23 -199 120 -124 92 -162 110 -234 110
-47 0 -67 -5 -98 -26 -21 -15 -36 -23 -32 -19 4 5 4 13 -1 19 -5 6 -12 30 -16
53 l-6 41 38 7 c43 7 119 -7 164 -30 40 -21 42 -20 37 22 -4 29 0 41 16 54 12
10 18 20 15 23 -3 3 -15 -4 -26 -17z m-18 -156 c22 -10 94 -60 160 -110 66
-50 145 -104 176 -119 64 -30 66 -34 76 -162 5 -73 5 -76 -18 -87 l-24 -12 23
0 c17 -1 22 -6 18 -18 -2 -10 -7 -45 -11 -78 -7 -57 -8 -58 -21 -35 l-13 25
-1 -30 c0 -16 -9 -44 -19 -62 -27 -44 -93 -56 -305 -55 -251 1 -285 11 -201
59 50 28 69 63 53 97 -6 15 -14 26 -17 26 -3 0 -12 4 -19 9 -10 6 -6 15 17 39
34 34 41 81 16 102 -14 12 -13 15 5 35 11 12 20 35 20 53 0 18 3 32 6 32 3 0
40 -36 81 -80 113 -120 191 -158 264 -127 l34 14 -47 -5 c-75 -7 -112 4 -168
55 -73 66 -150 182 -150 228 0 40 1 40 -36 20 -40 -21 -113 -19 -137 3 -19 16
-20 16 -8 -5 6 -12 11 -46 11 -75 0 -103 -80 -210 -145 -194 -28 7 -31 24 -13
73 10 27 16 32 33 27 19 -6 19 -6 1 8 -15 12 -20 32 -24 97 l-5 81 34 -5 c34
-5 34 -5 6 6 -18 7 -27 17 -25 28 4 16 17 18 53 7 15 -5 15 -4 -2 5 -13 7 -23
15 -23 19 0 4 24 20 54 36 30 16 52 32 50 36 -3 4 3 5 12 1 13 -5 15 -3 9 7
-5 8 -4 11 2 7 6 -4 35 4 65 18 63 30 99 31 153 6z m-411 -33 c-6 -10 34 -20
47 -12 7 4 9 3 6 -3 -4 -6 1 -14 10 -17 14 -6 11 -11 -15 -37 -25 -25 -32 -40
-32 -70 0 -22 -5 -39 -10 -39 -24 0 -146 34 -159 44 -9 7 -12 25 -8 60 6 68
30 87 107 84 32 -2 56 -6 54 -10z m-66 -184 l83 -17 -3 -71 -3 -71 -37 -3
c-53 -4 -148 15 -170 35 -25 22 -24 83 3 117 24 31 21 31 127 10z m1102 -44
c-19 -15 -22 -20 -10 -24 72 -25 235 -87 238 -91 3 -3 -44 -28 -103 -56 l-108
-50 29 -18 c16 -9 62 -35 102 -56 39 -22 72 -42 72 -45 0 -4 -53 -21 -117 -40
-65 -18 -122 -35 -126 -38 -5 -2 10 -20 33 -39 22 -20 39 -37 37 -40 -4 -3
-225 48 -264 62 -8 3 -7 16 4 52 12 35 16 91 17 209 l1 162 100 15 c55 8 105
15 110 16 6 0 -1 -8 -15 -19z m-1067 -140 c22 0 28 -4 25 -18 -9 -56 67 -69
123 -23 26 22 51 32 90 36 37 5 50 3 40 -3 -11 -8 -8 -11 15 -14 39 -4 42 -31
8 -65 l-28 -28 -7 25 c-7 23 -7 23 -8 3 -1 -26 -21 -38 -74 -48 -35 -7 -37 -6
-37 18 0 14 -4 28 -8 31 -4 2 -7 -12 -5 -32 l3 -37 -19 40 c-20 41 -28 35 -12
-9 9 -22 7 -25 -20 -31 -34 -8 -150 2 -197 17 -43 13 -67 63 -51 105 15 39 27
45 84 39 28 -3 63 -6 78 -6z m277 -169 c0 -5 -6 -12 -12 -15 -7 -3 -1 -3 14 0
20 4 29 1 37 -15 9 -17 8 -24 -10 -42 l-22 -22 -13 24 -13 24 -1 -27 c0 -27
-4 -29 -62 -42 -26 -6 -28 -4 -28 23 0 16 -4 32 -9 36 -6 3 -7 -10 -4 -32 7
-43 -6 -38 -25 10 -10 26 -11 27 -8 7 2 -14 5 -32 7 -40 3 -12 -12 -16 -91
-18 -121 -4 -137 1 -157 43 -14 28 -14 39 -4 61 l12 27 97 -5 c53 -3 124 -2
157 2 92 11 135 11 135 1z"/>
</g>
</svg>
